-------------------------------------------------------------------------------
Test set: com.javabydeveloper.demo.SpringBootHelloWorldApplicationTests
-------------------------------------------------------------------------------
Tests run: 1, Failures: 0, Errors: 0, Skipped: 0, Time elapsed: 1.131 s - in com.javabydeveloper.demo.SpringBootHelloWorldApplicationTests
